<svg width="37" height="700" 
    xmlns="http://www.w3.org/2000/svg">
    <g>
        <title>background</title>
        <rect fill="none" id="canvas_background" height="700" width="500" y="-1" x="-1"/>
    </g>

    <g>
        <title>Layer 1</title>
        <g id="svg_1">
            <line id="svg_3" stroke="#6790ac" y2="0" y1="77" x2="25" x1="25"/>
            <line id="svg_3" stroke="#6790ac" y2="77" y1="96" x2="25" x1="11"/>
            <line id="svg_3" stroke="#6790ac" y2="96" y1="159" x2="11" x1="11"/>
            <circle id="svg_2" fill="#eaedf4" stroke-width="2" stroke="#6790ac" r="3" cy="163" cx="11"/>

            <line id="svg_3" stroke="#6790ac" y2="0" y1="79" x2="30" x1="30"/>
            <line id="svg_3" stroke="#6790ac" y2="79" y1="98" x2="30" x1="16"/>
            <line id="svg_3" stroke="#6790ac" y2="98" y1="221" x2="16" x1="16"/>
            <circle id="svg_2" fill="#eaedf4" stroke-width="2" stroke="#6790ac" r="3" cy="225" cx="16"/>

            <line id="svg_3" stroke="#6790ac" y2="0" y1="700" x2="35" x1="35"/>
        </g>
    </g>
</svg>